Phat 1
cua_hang 3
sieu_thi 3
khong 1
dung 3
hoa_don 7
ban_le 7
Tong_cuc 1
Thue 8
vua 1
co 6
cong_van 1
gui 1
Cuc 2
Chi_cuc 1
cac 5
dia_phuong 1
de_nghi 1
tien_hanh 1
ra_soat 1
toan_bo 1
co_so 2
kinh_doanh 2
su_dung 6
may_tinh 6
tien 8
de 3
hang_hoa 2
dich_vu 2
va 1
thong_bao 1
yeu_cau 2
don_vi 2
thuc_hien 1
viec 1
dang_ky 2
tu 4
in 3
cho 5
theo 1
quy_dinh 1
hien_hanh 1
Nganh 1
tat_ca 1
thi 1
deu 1
phai 4
Loai 1
nay 1
duoc 1
lam 1
can_cu 1
tinh 2
do 1
Bo 1
Tai 1
chinh 1
phat_hanh 1
hoac 1
to_chuc 1
ca_nhan 1
voi 1
thanh_pho 1
truc_thuoc 1
Trung_uong 1
Mau 1
chi_tieu 1
nhu 1
ten 1
dia_chi 1
ma_so 1
ban 1
hang 1
so_luong 1
don_gia 1
thanh 1
thue_suat 1
thue_gia_tri_gia_tang 1
GTGT 2
2 2
lien 3
tro_len 1
1 1
luu 1
giao 1
khach_hang 1
Hong_Phuc_Theo_Viet 1
Namnet 1
