Hacker_Nga 2
gioi 3
nhat 4
the_gioi 5
Don_vi 2
phong_chong 3
toi_pham 10
ky_thuat 2
cao 3
cua 6
Nga 9
con 1
duoc 4
biet 2
den 2
duoi 1
ten 1
Cuc 2
K” 1
da 6
canh_bao 2
rang 5
la 5
nhung 2
ky_thuat_so 3
Theo 3
canh_sat 4
cho_biet 4
cac 16
hacker 6
nguoi 5
lay 1
viec 1
dot_nhap 1
vao 4
mang 3
may_tinh 1
lam 1
niem_vui 1
hien 1
dang 3
ham_ho 1
gia_nhap 1
tap_doan 1
Trung_tuong 1
Boris_Miroshnikov 1
cuc_truong 1
K 1
Tat_ca 1
moi 3
deu 5
co 3
kha_nang 4
vuot_troi 1
ve 2
toan_hoc 1
lap_trinh_vien 1
chuyen_gia 1
lap_trinh 1
va 7
do 3
cung 1
nguyen_do 1
tai_sao 1
thuoc 1
tay_an 1
Phat_bieu 1
tai 2
Hoi_nghi 2
chuyen_de 1
to_chuc 1
ngay 1
6-4 1
London 1
Miroshnikov 3
tuoi 1
vi_thanh_nien 2
khi 3
truong_thanh 2
tu 3
phat_trien 1
cong_nghe 1
tan_cong 2
doc_dao 1
rieng 1
minh 2
tro_nen 1
lao_luyen 1
hon 3
thong_minh 1
ho 2
su_dung 1
de 3
kiem 1
song 1
sau 1
lam_giau 1
tao 2
nen 1
mot 1
cong_dong 1
doc_nhat_vo_nhi 1
tren 3
keu_goi 1
hop_nhat 1
dieu_luat 1
Internet 1
dieu_kien 1
thuan_loi 1
cho 2
nuoc 1
san_lung 1
bat_giu 1
loai 2
nay 5
toan 1
Trong 3
Anh 3
bon 2
cong_nghe_cao 1
chiem_doat 1
hoac 1
pha_hoai 1
tong_cong 1
khoang 1
4,59 1
tỷ 1
USD 1
doanh_nghiep 1
nam 5
qua 2
nhan_dinh 1
so_lieu 3
dua 2
ra 3
loi 1
het_suc 1
ro_rang 1
quoc_te 1
can 1
phai 1
gia_tang 1
no_luc 1
ngan_chan 1
sieu 1
thong_ke 1
qua_that 1
lo_ngai 1
neu 1
quy_vi 1
theo_doi 1
2001 1
2003 1
thi 2
se 1
nhan 1
thay 1
so 2
vu 2
pham_toi 2
tang 2
gap 1
doi 1
tung 1
duy 1
chi 1
khong 1
chung_ta 1
lam_viec 1
hieu_qua 1
chinh_phu 1
bo_luat 1
khu_vuc 1
tu_nhan 1
nha_nuoc 1
hop_tac 1
voi 1
nhau 1
chat_che 1
giam_thieu 1
thoi_dai 1
quy 1
thu_pham 1
gay 1
hang_loat 1
cuoc 1
tu_choi 1
dich_vu 1
trang_web 1
tro_choi 1
thoi_gian 1
Tuoi_Tre 1
