Nguoi 3
tre 1
va 6
dien_thoai_di_dong 3
chuyen 1
phuc_tap 1
Mot 5
hoc_sinh 8
nu 1
truong 5
trung_hoc 4
quan 1
Mission 2
giai_thich 1
Co 15
cai 2
DTDD 10
ben 2
minh 6
rat 4
quan_trong 1
vi 3
doi 1
ti 1
nhe 1
luc 1
nay 5
dien_thoai 8
be 2
dang 2
reo 1
nen 1
voi_va 1
ket_thuc 1
cuoc 3
noi_chuyen 3
voi 7
toi 3
Doi_voi 1
thanh_thieu_nien 4
tai 1
My 2
chiec 4
tro_thanh 1
vat 1
khong_the 2
thieu 1
Nhieu 3
con 4
cho 5
rang 3
chung 5
bo 1
tien 7
mua 1
thu 2
hang 2
hon 2
quan_ao 1
dia_nhac 1
Phong_cach 1
song 1
tro_nen 1
qua 4
pho_bien 1
den_noi 1
phan_nua 1
so 3
o 3
so_huu 1
loai 3
vat_dung 1
vai 1
den 5
80% 1
nha_truong 1
phai 3
ban_hanh 1
luat 1
nghiem_khac 1
de 4
xu_ly 1
nhung 4
van_de 1
lien_quan 1
viec 2
su_dung 3
Hau_het 1
cac 10
cam 1
trong 5
gio 4
hoc 1
Neu_khong 1
chap_hanh 1
DT 2
se 1
buoc 1
nam 1
im 1
phong 1
hieu_truong 2
cho_den 1
het 1
Phu_huynh 2
thuong 1
ung_ho 1
lien_lac 1
ve 3
nha 2
khi 5
chuỵen 1
gi 2
xay_ra 1
lai 1
thich 1
tinh_nang 1
khac 2
cua 6
nhu 1
nhac 1
chuong 1
gui 1
tin 1
nhan 1
noi_mang 1
camera 1
Vi_vay 1
ma 2
hay 1
vuot 3
kha_nang 1
Bat 2
ngua 2
don 2
thanh_toan 2
Mt 1
Diable 1
giao_vien 1
ten 1
Randy_Depew 1
hoi 1
nao 1
gap 3
kho_khan 1
tra 4
khong 4
Hau_nhu 1
ai 2
cung 4
tay 1
noi 6
nhin 1
an 1
trua 1
Mot_so 1
thi 1
bi 1
dai_ly 1
kiem 1
tan 1
Do_vay 1
rac_roi 2
ba_me 1
chang 1
ngac_nhien 1
co_cau 1
nau 1
chao 1
moi 2
thang 1
len 2
1.000 1
USD 2
Erin_Miller 1
cap 1
hai 1
em 1
ngo 1
muc 2
du_tru 2
Khoan 2
them 2
do 8
goi 2
quy_dinh 1
phut 2
la 5
40 1
cent 1
tinh 1
da 2
200 1
ghi 1
ro_rang 1
Me 1
kho_chiu 1
roi 1
hieu 1
ba 1
thay 2
sau 1
chung_toi 1
no 1
lo_lang 2
cong_ty 3
vien_thong 1
quang_ba 1
manh_me 1
san_pham 2
khach_hang 2
tuoi 2
trach_nhiem 1
kiem_soat 2
thuoc 1
giao_duc 1
nhu_the 1
chua 1
du 1
mot_mat 1
loi_nhuan 1
chui 1
vao 1
tui 1
dien 2
thoai 2
mat_khac 1
ho 2
chap_nhan 1
gia_dinh 1
gay 1
ra 1
dung 1
tro 1
kech_com 1
Hiep_hoi 2
tieu_dung 3
ban 2
bao_cao 1
nghien_cuu 1
cach 1
hoach_dinh 1
di_dong 1
dem 1
loi 2
khuyen 1
bac 1
cha_me 1
Dat 1
ke_hoach 1
truoc 1
phan 1
han_che 1
co_y 1
rao 1
theo 2
giam_doc 1
West_Coast_Betsy_Imholz 1
vua_moi 1
gioi_thieu 1
chuc_nang 1
gioi_han 1
vong 1
30 1
co_the 1
chuong_trinh 1
di 1
day 1
tiem_nang 1
hien_nay 1
Chinh 1
9 1
Tuoi_Tre 1
