﻿ Đáp_án và danh_sách trúng thưởng môn Toán
1 . Nguyen_Thi_Kim_Hoa , CMND : 225344981 , email : hoatim2507 @ , số dự_đoán : 725 , thời_gian gửi bài thi : 18/05 17:41:58 2 Dao_Nguyen_Ai_Hoa , CMND : 023955230 , email : nancylee277 @ , số dự_đoán : 727 , thời_gian gửi bài thi : 21/05 13:48:53 3 Lê_Bá_Kỳ , CMND : 212207915 , email : man _ in _ the _ mirrow1958 @ , số dự_đoán : 723 , thời_gian gửi bài thi : 19/05 16:11:28
Mời 3 bạn_đọc có tên nói trên gửi email về tòa_sọan ( tto@tuoitre.com.vn ) để cung_cấp thêm chi_tiết về địa_chỉ thường_trú , số ĐT liên_lạc , họ tên đầy_đủ ( có dấu ) ... để chúng_tôi chuẩn_bị trao giải .
( ) TTO : 2 bạn đạt giải nhất - nhì cùng có số dự_đoán người đáp trúng chênh 1 phiếu , nên BTC đã chấm giải theo ưu_tiên người gửi bài thi về tòa_soạn sớm hơn .
Giải_thưởng mà các bạn sẽ được nhận là : - giải nhất : 2.000.000đ + 1 SPT Internet card trị_giá 300.000đ - giải nhì : 1.000.000đ + 1 SPT Internet card trị_giá 300.000đ - giải ba : 500.000đ + 1 SPT Internet card trị_giá 300.000đ
Đáp_án môn Toán : 1b , 2c , 3d , 4a , 5a , 6b , 7d , 8d , 9b , 10c Bấm vào đây để xem đáp_án chi_tiết môn Toán
TTO
