﻿Danh sách bạn đọc trúng thưởng "Vui cùng bóng đá VN" (vòng 15 V-League 2005)

6- Nguyễn Hữu Nhân , 128/8 Tân Tiến, Đồng Nai; 7- Lê Đăng Khoa , 312 lô G cư xá Thanh Đa, P.28 Q.BT, TP.HCM; 8- Lê Thi Thơ , thôn Dương Sơn, xã Hương Toàn, huyện Hương Trà, Huế; 9- Nguyễn Thị Thanh Mỹ , 18 Lê Tấn Quốc, Cộng Hòa, P.13 Q.TB, TP.HCM; 10- Suh Cang Hy , 128 lô L chung cư Ngô Gia Tự, P.2, Q.10, TP.HCM; 11- Nguyễn Đức Cường , 86 Phan Đăng Lưu, P.5, Q.PN,TP.HCM; 12- Nguyễn Văn Tốt , 6/9 Phan Hữu Chí, P.12, Q.5, TP.HCM; 13- Đào Đình Tuấn , 2 cư xá Độc Lập, P.Tân Quí, Q.TP, TP.HCM; 14- Lê Quang Thắng , 81 Bình Quới, P.27, Q.BT, TP.HCM; 15- Lê Công Anh Tuấn , 183/27 Nguyễn Văn Đậu, P.11, Q.BT, TP.HCM.

T.T
