﻿23.678 tin nhắn, phiếu trả lời đúng

Có hai bạn đọc đưa ra được số dự đoán gần chính xác nhất (23.677) là Phan Văn Vương (P.Phú Thọ Hòa, Q.Tân Phú, TP.HCM) và Nguyễn Xuân Thiện (Q.Bình Thạnh, TP.HCM) sẽ bốc thăm chọn giải nhất (7 triệu đồng) và giải nhì (4 triệu đồng) trong lễ trao giải được tổ chức vào 15g ngày 8-1-2006 tại tòa soạn báo Tuổi Trẻ . 
Giải ba (2 triệu đồng) thuộc về bạn Nguyễn Thị Bích Uyên (Khu công nghiệp Tân Bình, Q.Tân Phú) với con số dự đoán 23.680. Nguyễn Thị Lan Anh (Gò Vấp, TP.HCM) và chủ nhân số điện thoại 0913.167272 giành hai giải khuyến khích là những bộ đĩa CD luyện phát âm. 
Đáp án các đề thi trong tuần thứ bảy, đề 1: 1B, 2B, 3B, 4D, 5D; đề 2: 1A, 2B, 3B, 4A, 5B; đề 3: 1C, 2B, 3A, 4C, 5D; đề 4: 1D, 2B, 3B, 4B, 5D; đề 5: 1C, 2A, 3B, 4A, 5B; đề 6: 1B, 2A, 3B, 4A, 5D.

BTC
