﻿Giá trái cây tại các chợ đầu mối khu vực ĐBSCL

Bưởi Năm Roi: Chợ Tam Bình (Vĩnh Long): giá 5.000 - 6.000đ/kg. Chợ Phong Điền (Cần Thơ) bưởi Năm Roi không có hàng. Chợ Vĩnh Kim (Tiền Giang): giá 6.600 - 7.500đ/kg. Chợ Tam Bình (TP.HCM): giá phổ biến từ 80.000đ-100.000đ/chục. 
Nhãn da bò: Chợ Tam Bình (Vĩnh Long), chợ Phong Điền (Cần Thơ) nhãn da bò không có hàng. Chợ Vĩnh Kim (Tiền Giang) giá 6.600 - 10.800đ/kg. Chợ Tam Bình (TP.HCM) giá 5.000đ- 6.000đ/kg. 
Chợ Tam Bình (Vĩnh Long): Nho đỏ, nho xanh 17.000đ/kg; mãng cầu dai 11.000đ/kg; xoài loại 1: giữ giá 15.000đ/kg, sabôchê: 3.500đ/kg. Táo, lê Trung Quốc từ 11.000-12.000đ/kg. 
Chợ Vĩnh Kim (Tiền Giang): Cam mật từ 4.700 - 6.000đ/kg; vú sữa Lò Rèn từ 10.500 - 15.500đ/kg; sabôchê lồng mứt: 4.400 - 5.800đ/kg, tăng 200đ/kg; xoài cát Hòa Lộc giá từ 14.000 - 18.200đ/kg. Xoài cát chu từ: 6.800-9.200đ/kg. 
(Nguồn: Trung tâm Thông tin - Bộ Nông nghiệp &amp; phát triển nông thôn)

PV
